%YAML 1.1
%TAG !u! tag:unity3d.com,2011:
--- !u!74 &7400000
AnimationClip:
  m_ObjectHideFlags: 0
  m_CorrespondingSourceObject: {fileID: 0}
  m_PrefabInstance: {fileID: 0}
  m_PrefabAsset: {fileID: 0}
  m_Name: bertedero
  serializedVersion: 6
  m_Legacy: 0
  m_Compressed: 0
  m_UseHighQualityCurve: 1
  m_RotationCurves: []
  m_CompressedRotationCurves: []
  m_EulerCurves: []
  m_PositionCurves: []
  m_ScaleCurves: []
  m_FloatCurves: []
  m_PPtrCurves:
  - curve:
    - time: 0
      value: {fileID: 21300000, guid: 70e14aaf07ca9d243ad716ea57b7eab9, type: 3}
    - time: 0.033333335
      value: {fileID: 21300000, guid: e1f928b7b25387c4297f7bd33d3910ad, type: 3}
    - time: 0.06666667
      value: {fileID: 21300000, guid: 7948933796caf7c4699c0b0162f46a67, type: 3}
    - time: 0.1
      value: {fileID: 21300000, guid: 1e396d8bb2d588b46b8a6ae5ddbaf9bf, type: 3}
    - time: 0.13333334
      value: {fileID: 21300000, guid: bba5a7d45426bc848a5ef3ef1d3f1789, type: 3}
    - time: 0.16666667
      value: {fileID: 21300000, guid: 542cd7c63f495bb41b201b92e68206b6, type: 3}
    - time: 0.2
      value: {fileID: 21300000, guid: a66ea1c090489864596ef47d8420b8d0, type: 3}
    - time: 0.23333333
      value: {fileID: 21300000, guid: dafd084b6bf0f294db9a7013c0666105, type: 3}
    - time: 0.26666668
      value: {fileID: 21300000, guid: 218d9b4bfd0c8874ea9530503b34f62d, type: 3}
    - time: 0.3
      value: {fileID: 21300000, guid: fee2170c628ebd140b96e9d7c48e87ce, type: 3}
    - time: 0.33333334
      value: {fileID: 21300000, guid: 221e2027e3a156c48b9c0def6843746c, type: 3}
    - time: 0.36666667
      value: {fileID: 21300000, guid: 5f5ebf6574a03c74591082c7e5773fc1, type: 3}
    - time: 0.4
      value: {fileID: 21300000, guid: 60cf094d258c8a94aa2dedfd658a5e87, type: 3}
    - time: 0.43333334
      value: {fileID: 21300000, guid: ba8ca764301086f46b7d6af39cb78c14, type: 3}
    - time: 0.46666667
      value: {fileID: 21300000, guid: c0d080f42d4f3874c98480b27eb65f52, type: 3}
    - time: 0.5
      value: {fileID: 21300000, guid: 33b5e30c8846ccc4bae0824c08062830, type: 3}
    - time: 0.53333336
      value: {fileID: 21300000, guid: 9605d162dce056c4698db890b8980f4e, type: 3}
    - time: 0.56666666
      value: {fileID: 21300000, guid: 8755caa347f0c2c4e9ef518964f91608, type: 3}
    - time: 0.6
      value: {fileID: 21300000, guid: d37f87795b8562a4ab780e612409705c, type: 3}
    - time: 0.6333333
      value: {fileID: 21300000, guid: b04fe4901ac44e243b1f32e6297ace81, type: 3}
    - time: 0.6666667
      value: {fileID: 21300000, guid: 40f0795aea0ad1945b40e13e20917eaa, type: 3}
    - time: 0.7
      value: {fileID: 21300000, guid: c5e3ff5b69879194189e64d484ed5ca3, type: 3}
    - time: 0.73333335
      value: {fileID: 21300000, guid: 59db6d7f0519e68499127d838bc514e7, type: 3}
    - time: 0.76666665
      value: {fileID: 21300000, guid: 4c55857f78bcdfa499de8e19b7a31876, type: 3}
    - time: 0.8
      value: {fileID: 21300000, guid: 469b0889aef36ff4894c0563e7818772, type: 3}
    - time: 0.8333333
      value: {fileID: 21300000, guid: a3081fe297bfa8442b73e8e1ede60553, type: 3}
    - time: 0.8666667
      value: {fileID: 21300000, guid: 6c107e2720db0f44bba0c32947c2716e, type: 3}
    - time: 0.9
      value: {fileID: 21300000, guid: 0028cb3f4e650f940a8ae75e5d966228, type: 3}
    - time: 0.93333334
      value: {fileID: 21300000, guid: a8843411b8fd59847b259aaf5da35474, type: 3}
    - time: 0.96666664
      value: {fileID: 21300000, guid: 816cf89f555f8a541b49e3be0481efa5, type: 3}
    - time: 1
      value: {fileID: 21300000, guid: f9f76f4ca10c0054199f7f7c7c71b39c, type: 3}
    - time: 1.0333333
      value: {fileID: 21300000, guid: b26625d4ec4bef445bae162870652489, type: 3}
    - time: 1.0666667
      value: {fileID: 21300000, guid: e42cf6896ec5d4f4681b0268a2bd6043, type: 3}
    - time: 1.1
      value: {fileID: 21300000, guid: b033cc1f20914a74e86ef123af5b77c8, type: 3}
    - time: 1.1333333
      value: {fileID: 21300000, guid: 8c4b345fc62535648bb60866086b2ba1, type: 3}
    - time: 1.1666666
      value: {fileID: 21300000, guid: 0a14e9cf153672f4c97094390f7e1dbf, type: 3}
    - time: 1.2
      value: {fileID: 21300000, guid: 13eb149d40a731a4e9ca87c4569645ac, type: 3}
    - time: 1.2333333
      value: {fileID: 21300000, guid: 119e4b6440012d844b4f8f73e77c5461, type: 3}
    - time: 1.2666667
      value: {fileID: 21300000, guid: be957a14e190c454186d249fce15a15b, type: 3}
    - time: 1.3
      value: {fileID: 21300000, guid: 0f121dc160b36cd43b70d58ff55fe0e5, type: 3}
    - time: 1.3333334
      value: {fileID: 21300000, guid: 66b0a1dbc8415044ba1d0a0adb4148e4, type: 3}
    - time: 1.3666667
      value: {fileID: 21300000, guid: e32bcd1dccf63f54fa05f87ea4fc84df, type: 3}
    - time: 1.4
      value: {fileID: 21300000, guid: ccf721883a8cf434e88fb311ad46291a, type: 3}
    - time: 1.4333333
      value: {fileID: 21300000, guid: a3b6012b8b526db4b905df4c935de7f6, type: 3}
    - time: 1.4666667
      value: {fileID: 21300000, guid: 68380bea21a1e0a45b16a5c679c8e522, type: 3}
    - time: 1.5
      value: {fileID: 21300000, guid: 024ad365a3c29324186b796420591864, type: 3}
    - time: 1.5333333
      value: {fileID: 21300000, guid: 969ed9e13f75a844a8f5196f11135966, type: 3}
    - time: 1.5666667
      value: {fileID: 21300000, guid: 1d65fd76e5390de4392618f38a27713a, type: 3}
    - time: 1.6
      value: {fileID: 21300000, guid: 688b1590850b9644d8f56ca69489d5ff, type: 3}
    - time: 1.6333333
      value: {fileID: 21300000, guid: c5fc00996f4255b4b92cf47f140b8519, type: 3}
    - time: 1.6666666
      value: {fileID: 21300000, guid: a8d8193539311854daa686a2457fe738, type: 3}
    - time: 1.7
      value: {fileID: 21300000, guid: ce97f9fa36dacd94c9cc42778547b760, type: 3}
    - time: 1.7333333
      value: {fileID: 21300000, guid: 8d4890c0c59cec4448f2b381df61121e, type: 3}
    - time: 1.7666667
      value: {fileID: 21300000, guid: cbd6ee9a68cac3a45a5c83116e9334c2, type: 3}
    - time: 1.8
      value: {fileID: 21300000, guid: 9402474516c5dc44aaa2f95776fb4118, type: 3}
    - time: 1.8333334
      value: {fileID: 21300000, guid: 36b130fe3ce14c348b596a5f22e0aad5, type: 3}
    - time: 1.8666667
      value: {fileID: 21300000, guid: 605c1b9dbef63674d9d32f9b310205ba, type: 3}
    - time: 1.9
      value: {fileID: 21300000, guid: 58469032092525b4c981a8ef4aafdc08, type: 3}
    - time: 1.9333333
      value: {fileID: 21300000, guid: e535ebf7875fc2844a1813eac040f228, type: 3}
    - time: 1.9666667
      value: {fileID: 21300000, guid: 535179f3b24f86f4693bc14b94d31cfb, type: 3}
    - time: 2
      value: {fileID: 21300000, guid: fc9b34a9bd01e7341b143c9885030972, type: 3}
    - time: 2.0333333
      value: {fileID: 21300000, guid: fc9b34a9bd01e7341b143c9885030972, type: 3}
    - time: 2.0666666
      value: {fileID: 21300000, guid: e92eaac2c45e8234da80882af8f58e98, type: 3}
    - time: 2.1
      value: {fileID: 21300000, guid: 19122bf63ed28fc45994da9a803af764, type: 3}
    - time: 2.1333334
      value: {fileID: 21300000, guid: 57a417ae2769108499bc64014601086e, type: 3}
    - time: 2.1666667
      value: {fileID: 21300000, guid: b1692668e8cc49e4aa5cb5303eab14a2, type: 3}
    - time: 2.2
      value: {fileID: 21300000, guid: 22db81de8a994304d8748e147f430b0b, type: 3}
    - time: 2.2333333
      value: {fileID: 21300000, guid: c7bac4c69d60ef44ab2c5a8724a4593c, type: 3}
    - time: 2.2666667
      value: {fileID: 21300000, guid: 8651f0469e01b0844bf8527cf7408b5e, type: 3}
    - time: 2.3
      value: {fileID: 21300000, guid: e73a568fe34284143a9ead8f55e44d10, type: 3}
    - time: 2.3333333
      value: {fileID: 21300000, guid: 89f206aeee14eae4495768b941c497b3, type: 3}
    - time: 2.3666666
      value: {fileID: 21300000, guid: 7594e50bbb53db84e9c3b3421477487e, type: 3}
    - time: 2.4
      value: {fileID: 21300000, guid: ac95d51d7ffd0ae4a9ebd5f531841da5, type: 3}
    - time: 2.4333334
      value: {fileID: 21300000, guid: e6707474c860f8e49be3a2fd388150cb, type: 3}
    - time: 2.4666667
      value: {fileID: 21300000, guid: ce0a5f579a1a112429e14c79eb892830, type: 3}
    - time: 2.5
      value: {fileID: 21300000, guid: 70a30d13739221d419d7181306afeac6, type: 3}
    - time: 2.5333333
      value: {fileID: 21300000, guid: 22504bd7eabc3404d92594760125c085, type: 3}
    - time: 2.5666666
      value: {fileID: 21300000, guid: 71cf602ca569c5e4db0177bb3c7d4c5b, type: 3}
    - time: 2.6
      value: {fileID: 21300000, guid: bc7f720f5bdcb60489e4ac6352c909cd, type: 3}
    - time: 2.6333334
      value: {fileID: 21300000, guid: d60723c62feb4a64e9feb03217252a2d, type: 3}
    - time: 2.6666667
      value: {fileID: 21300000, guid: 4f26771dcf56c1d47a7e55b574bbfd65, type: 3}
    - time: 2.7
      value: {fileID: 21300000, guid: bae8c775e9e5bf643a52703d437a8f83, type: 3}
    - time: 2.7333333
      value: {fileID: 21300000, guid: 3e33089a9ee2d63448cfb626e9618ce3, type: 3}
    - time: 2.7666667
      value: {fileID: 21300000, guid: c9acf4aaa3af0a94fbf965610c5ac324, type: 3}
    - time: 2.8
      value: {fileID: 21300000, guid: 410040492a0f6b040b5c9630a69372bb, type: 3}
    - time: 2.8333333
      value: {fileID: 21300000, guid: d33f6b5821ec68846a3d60ca2f723ec5, type: 3}
    - time: 2.8666666
      value: {fileID: 21300000, guid: 5212345437e31df4d9b9dd2930a9592a, type: 3}
    - time: 2.9
      value: {fileID: 21300000, guid: fd90cfe940b69c94da9a705f2ed3d7e7, type: 3}
    - time: 2.9333334
      value: {fileID: 21300000, guid: 764c691474fa0f044b9a3a628a19dfcc, type: 3}
    - time: 2.9666667
      value: {fileID: 21300000, guid: e027581eb69ce614c879d6abc0796a09, type: 3}
    - time: 3
      value: {fileID: 21300000, guid: 0c387dacfad187d4f8f73ad7e7a5e3c7, type: 3}
    - time: 3.0333333
      value: {fileID: 21300000, guid: 8c09f5f9b48f67345b45bbaa6a5f2798, type: 3}
    - time: 3.0666666
      value: {fileID: 21300000, guid: e74d1b52d0f6b9e43bc737709524e98f, type: 3}
    - time: 3.1
      value: {fileID: 21300000, guid: 0628652e0cc70d84fab44179883c73ed, type: 3}
    - time: 3.1333334
      value: {fileID: 21300000, guid: df4e9a3638c146f4fb115a349d9d9478, type: 3}
    - time: 3.1666667
      value: {fileID: 21300000, guid: a3cc0033cbf7678418f852512629258f, type: 3}
    - time: 3.2
      value: {fileID: 21300000, guid: d88cd8ec7a83cab4c889c5bc96de0fa0, type: 3}
    - time: 3.2333333
      value: {fileID: 21300000, guid: f29b7327749e4f74cb76b92d863a9d9a, type: 3}
    - time: 3.2666667
      value: {fileID: 21300000, guid: a06aabc93d714824e96281c188ab6ef7, type: 3}
    - time: 3.3
      value: {fileID: 21300000, guid: 8316c590f2ac7044db0046aab7883751, type: 3}
    - time: 3.3333333
      value: {fileID: 21300000, guid: bda5a81cd3692de40837378d174d55dd, type: 3}
    - time: 3.3666666
      value: {fileID: 21300000, guid: d2e8cd01a2889c74e88363be72a1a1cd, type: 3}
    - time: 3.4
      value: {fileID: 21300000, guid: 63554af0b452cd64c911e33aedfd59db, type: 3}
    - time: 3.4333334
      value: {fileID: 21300000, guid: 9adc3de635975634cbfa93b204767732, type: 3}
    - time: 3.4666667
      value: {fileID: 21300000, guid: f5f9eac514d6d3349af3863639bbf315, type: 3}
    - time: 3.5
      value: {fileID: 21300000, guid: 85a2719d542d8bc48b44fce9e7926442, type: 3}
    - time: 3.5333333
      value: {fileID: 21300000, guid: 3743e74ac82ea5949b4d4e56de7c0bb0, type: 3}
    - time: 3.5666666
      value: {fileID: 21300000, guid: 745624ed084291944b8a5544d864110b, type: 3}
    - time: 3.6
      value: {fileID: 21300000, guid: f4a00424bd4b0e144a5c5805f13aa923, type: 3}
    - time: 3.6333334
      value: {fileID: 21300000, guid: 5232c57e77940b945b5de98af0f17908, type: 3}
    - time: 3.6666667
      value: {fileID: 21300000, guid: 4f309c44c12b7c94a84ea4575be6a473, type: 3}
    - time: 3.7
      value: {fileID: 21300000, guid: 1391e952e77884b4a90f73bf7f15571f, type: 3}
    - time: 3.7333333
      value: {fileID: 21300000, guid: 88d37ccfe148c6b438b0d251e2722ebf, type: 3}
    - time: 3.7666667
      value: {fileID: 21300000, guid: 033e1a0e8e5d3e44fbb5d2ca77388ce7, type: 3}
    - time: 3.8
      value: {fileID: 21300000, guid: dd01356e8b5fb6e49a9c28db38166ee2, type: 3}
    - time: 3.8333333
      value: {fileID: 21300000, guid: a2235e3863f239a4bb7ca5d74d5c15f4, type: 3}
    - time: 3.8666666
      value: {fileID: 21300000, guid: df74af8ea5a60774e921c8268c4cc948, type: 3}
    - time: 3.9
      value: {fileID: 21300000, guid: 90bfd074b098d004a9736b323e343060, type: 3}
    - time: 3.9333334
      value: {fileID: 21300000, guid: 4c3c03ba19b0cc442bb871ef1bb3e2af, type: 3}
    - time: 3.9666667
      value: {fileID: 21300000, guid: ab2dce035cc7371498ca9137ddab991c, type: 3}
    - time: 4
      value: {fileID: 21300000, guid: 01dde4a21e028844db2eea48c638ba74, type: 3}
    - time: 4.0333333
      value: {fileID: 21300000, guid: a97e33354b6b5ae4aac9799e69651fcc, type: 3}
    - time: 4.0666666
      value: {fileID: 21300000, guid: 775aede986d4ca646a642ad7de9141be, type: 3}
    - time: 4.1
      value: {fileID: 21300000, guid: 3b88e9f9da31df447bd752869e8d5f1a, type: 3}
    - time: 4.133333
      value: {fileID: 21300000, guid: e71e039281661984d956493233290fa0, type: 3}
    - time: 4.1666665
      value: {fileID: 21300000, guid: bce52423169162646805d4ae52cff312, type: 3}
    - time: 4.2
      value: {fileID: 21300000, guid: 6e00ac73507a4d443b3f25f577145c3d, type: 3}
    - time: 4.233333
      value: {fileID: 21300000, guid: e977be311492f714aa986c3fe5f14ded, type: 3}
    - time: 4.266667
      value: {fileID: 21300000, guid: fe074463dfe846b4c9395159a97ce57e, type: 3}
    - time: 4.3
      value: {fileID: 21300000, guid: 2c518944c67ca86449d2d12c3d357e95, type: 3}
    - time: 4.3333335
      value: {fileID: 21300000, guid: db0c20db881feae449dcbf7bddc758a6, type: 3}
    - time: 4.366667
      value: {fileID: 21300000, guid: cdd6c2a07ccec5b47ab0a55b0b598cac, type: 3}
    - time: 4.4
      value: {fileID: 21300000, guid: e1fee78b2f98eff488284c6c6e851d38, type: 3}
    - time: 4.4333334
      value: {fileID: 21300000, guid: b086d82ce6664f940ae8871bff5c09c9, type: 3}
    - time: 4.4666667
      value: {fileID: 21300000, guid: e4370d4fc96c1564ba262799c0c73659, type: 3}
    - time: 4.5
      value: {fileID: 21300000, guid: 345479445d07d924f865e704a0063d9a, type: 3}
    - time: 4.5333333
      value: {fileID: 21300000, guid: 1011e3aaf137387409484d0ac2cf9343, type: 3}
    - time: 4.5666666
      value: {fileID: 21300000, guid: c3d75c7c678bc0942a0f40e654ec1973, type: 3}
    - time: 4.6
      value: {fileID: 21300000, guid: d282da6c456ffaa49a276ae485a74dbb, type: 3}
    - time: 4.633333
      value: {fileID: 21300000, guid: 2ad54fbc90e0486449542ed6ec0e6a7f, type: 3}
    - time: 4.6666665
      value: {fileID: 21300000, guid: 2d9f7280bffd61043832cc3eef008bb8, type: 3}
    - time: 4.7
      value: {fileID: 21300000, guid: f36418e49ee8237458e5069cc926884b, type: 3}
    - time: 4.733333
      value: {fileID: 21300000, guid: 7bdf85079f9487d4581f7ab5563165a9, type: 3}
    - time: 4.766667
      value: {fileID: 21300000, guid: d15080567c02b744fbd2695a62279160, type: 3}
    - time: 4.8
      value: {fileID: 21300000, guid: 0633612895bf79f4a977de7deec983d9, type: 3}
    - time: 4.8333335
      value: {fileID: 21300000, guid: 951b163bf8cd8f3438392d742820fef8, type: 3}
    - time: 4.866667
      value: {fileID: 21300000, guid: 2f84e87cd39262a4f8cc2bd44e134406, type: 3}
    - time: 4.9
      value: {fileID: 21300000, guid: 9a30aefe23ffdea49833c1626b07a49e, type: 3}
    - time: 4.9333334
      value: {fileID: 21300000, guid: f69e572865d47574ab7c663ad6996bf3, type: 3}
    - time: 4.9666667
      value: {fileID: 21300000, guid: c42c65450a8410148a87d05d467e7a84, type: 3}
    - time: 5
      value: {fileID: 21300000, guid: e976acdcbe3d85c4980679bb593251d4, type: 3}
    attribute: m_Sprite
    path: 
    classID: 212
    script: {fileID: 0}
  m_SampleRate: 60
  m_WrapMode: 0
  m_Bounds:
    m_Center: {x: 0, y: 0, z: 0}
    m_Extent: {x: 0, y: 0, z: 0}
  m_ClipBindingConstant:
    genericBindings:
    - serializedVersion: 2
      path: 0
      attribute: 0
      script: {fileID: 0}
      typeID: 212
      customType: 23
      isPPtrCurve: 1
    pptrCurveMapping:
    - {fileID: 21300000, guid: 70e14aaf07ca9d243ad716ea57b7eab9, type: 3}
    - {fileID: 21300000, guid: e1f928b7b25387c4297f7bd33d3910ad, type: 3}
    - {fileID: 21300000, guid: 7948933796caf7c4699c0b0162f46a67, type: 3}
    - {fileID: 21300000, guid: 1e396d8bb2d588b46b8a6ae5ddbaf9bf, type: 3}
    - {fileID: 21300000, guid: bba5a7d45426bc848a5ef3ef1d3f1789, type: 3}
    - {fileID: 21300000, guid: 542cd7c63f495bb41b201b92e68206b6, type: 3}
    - {fileID: 21300000, guid: a66ea1c090489864596ef47d8420b8d0, type: 3}
    - {fileID: 21300000, guid: dafd084b6bf0f294db9a7013c0666105, type: 3}
    - {fileID: 21300000, guid: 218d9b4bfd0c8874ea9530503b34f62d, type: 3}
    - {fileID: 21300000, guid: fee2170c628ebd140b96e9d7c48e87ce, type: 3}
    - {fileID: 21300000, guid: 221e2027e3a156c48b9c0def6843746c, type: 3}
    - {fileID: 21300000, guid: 5f5ebf6574a03c74591082c7e5773fc1, type: 3}
    - {fileID: 21300000, guid: 60cf094d258c8a94aa2dedfd658a5e87, type: 3}
    - {fileID: 21300000, guid: ba8ca764301086f46b7d6af39cb78c14, type: 3}
    - {fileID: 21300000, guid: c0d080f42d4f3874c98480b27eb65f52, type: 3}
    - {fileID: 21300000, guid: 33b5e30c8846ccc4bae0824c08062830, type: 3}
    - {fileID: 21300000, guid: 9605d162dce056c4698db890b8980f4e, type: 3}
    - {fileID: 21300000, guid: 8755caa347f0c2c4e9ef518964f91608, type: 3}
    - {fileID: 21300000, guid: d37f87795b8562a4ab780e612409705c, type: 3}
    - {fileID: 21300000, guid: b04fe4901ac44e243b1f32e6297ace81, type: 3}
    - {fileID: 21300000, guid: 40f0795aea0ad1945b40e13e20917eaa, type: 3}
    - {fileID: 21300000, guid: c5e3ff5b69879194189e64d484ed5ca3, type: 3}
    - {fileID: 21300000, guid: 59db6d7f0519e68499127d838bc514e7, type: 3}
    - {fileID: 21300000, guid: 4c55857f78bcdfa499de8e19b7a31876, type: 3}
    - {fileID: 21300000, guid: 469b0889aef36ff4894c0563e7818772, type: 3}
    - {fileID: 21300000, guid: a3081fe297bfa8442b73e8e1ede60553, type: 3}
    - {fileID: 21300000, guid: 6c107e2720db0f44bba0c32947c2716e, type: 3}
    - {fileID: 21300000, guid: 0028cb3f4e650f940a8ae75e5d966228, type: 3}
    - {fileID: 21300000, guid: a8843411b8fd59847b259aaf5da35474, type: 3}
    - {fileID: 21300000, guid: 816cf89f555f8a541b49e3be0481efa5, type: 3}
    - {fileID: 21300000, guid: f9f76f4ca10c0054199f7f7c7c71b39c, type: 3}
    - {fileID: 21300000, guid: b26625d4ec4bef445bae162870652489, type: 3}
    - {fileID: 21300000, guid: e42cf6896ec5d4f4681b0268a2bd6043, type: 3}
    - {fileID: 21300000, guid: b033cc1f20914a74e86ef123af5b77c8, type: 3}
    - {fileID: 21300000, guid: 8c4b345fc62535648bb60866086b2ba1, type: 3}
    - {fileID: 21300000, guid: 0a14e9cf153672f4c97094390f7e1dbf, type: 3}
    - {fileID: 21300000, guid: 13eb149d40a731a4e9ca87c4569645ac, type: 3}
    - {fileID: 21300000, guid: 119e4b6440012d844b4f8f73e77c5461, type: 3}
    - {fileID: 21300000, guid: be957a14e190c454186d249fce15a15b, type: 3}
    - {fileID: 21300000, guid: 0f121dc160b36cd43b70d58ff55fe0e5, type: 3}
    - {fileID: 21300000, guid: 66b0a1dbc8415044ba1d0a0adb4148e4, type: 3}
    - {fileID: 21300000, guid: e32bcd1dccf63f54fa05f87ea4fc84df, type: 3}
    - {fileID: 21300000, guid: ccf721883a8cf434e88fb311ad46291a, type: 3}
    - {fileID: 21300000, guid: a3b6012b8b526db4b905df4c935de7f6, type: 3}
    - {fileID: 21300000, guid: 68380bea21a1e0a45b16a5c679c8e522, type: 3}
    - {fileID: 21300000, guid: 024ad365a3c29324186b796420591864, type: 3}
    - {fileID: 21300000, guid: 969ed9e13f75a844a8f5196f11135966, type: 3}
    - {fileID: 21300000, guid: 1d65fd76e5390de4392618f38a27713a, type: 3}
    - {fileID: 21300000, guid: 688b1590850b9644d8f56ca69489d5ff, type: 3}
    - {fileID: 21300000, guid: c5fc00996f4255b4b92cf47f140b8519, type: 3}
    - {fileID: 21300000, guid: a8d8193539311854daa686a2457fe738, type: 3}
    - {fileID: 21300000, guid: ce97f9fa36dacd94c9cc42778547b760, type: 3}
    - {fileID: 21300000, guid: 8d4890c0c59cec4448f2b381df61121e, type: 3}
    - {fileID: 21300000, guid: cbd6ee9a68cac3a45a5c83116e9334c2, type: 3}
    - {fileID: 21300000, guid: 9402474516c5dc44aaa2f95776fb4118, type: 3}
    - {fileID: 21300000, guid: 36b130fe3ce14c348b596a5f22e0aad5, type: 3}
    - {fileID: 21300000, guid: 605c1b9dbef63674d9d32f9b310205ba, type: 3}
    - {fileID: 21300000, guid: 58469032092525b4c981a8ef4aafdc08, type: 3}
    - {fileID: 21300000, guid: e535ebf7875fc2844a1813eac040f228, type: 3}
    - {fileID: 21300000, guid: 535179f3b24f86f4693bc14b94d31cfb, type: 3}
    - {fileID: 21300000, guid: fc9b34a9bd01e7341b143c9885030972, type: 3}
    - {fileID: 21300000, guid: fc9b34a9bd01e7341b143c9885030972, type: 3}
    - {fileID: 21300000, guid: e92eaac2c45e8234da80882af8f58e98, type: 3}
    - {fileID: 21300000, guid: 19122bf63ed28fc45994da9a803af764, type: 3}
    - {fileID: 21300000, guid: 57a417ae2769108499bc64014601086e, type: 3}
    - {fileID: 21300000, guid: b1692668e8cc49e4aa5cb5303eab14a2, type: 3}
    - {fileID: 21300000, guid: 22db81de8a994304d8748e147f430b0b, type: 3}
    - {fileID: 21300000, guid: c7bac4c69d60ef44ab2c5a8724a4593c, type: 3}
    - {fileID: 21300000, guid: 8651f0469e01b0844bf8527cf7408b5e, type: 3}
    - {fileID: 21300000, guid: e73a568fe34284143a9ead8f55e44d10, type: 3}
    - {fileID: 21300000, guid: 89f206aeee14eae4495768b941c497b3, type: 3}
    - {fileID: 21300000, guid: 7594e50bbb53db84e9c3b3421477487e, type: 3}
    - {fileID: 21300000, guid: ac95d51d7ffd0ae4a9ebd5f531841da5, type: 3}
    - {fileID: 21300000, guid: e6707474c860f8e49be3a2fd388150cb, type: 3}
    - {fileID: 21300000, guid: ce0a5f579a1a112429e14c79eb892830, type: 3}
    - {fileID: 21300000, guid: 70a30d13739221d419d7181306afeac6, type: 3}
    - {fileID: 21300000, guid: 22504bd7eabc3404d92594760125c085, type: 3}
    - {fileID: 21300000, guid: 71cf602ca569c5e4db0177bb3c7d4c5b, type: 3}
    - {fileID: 21300000, guid: bc7f720f5bdcb60489e4ac6352c909cd, type: 3}
    - {fileID: 21300000, guid: d60723c62feb4a64e9feb03217252a2d, type: 3}
    - {fileID: 21300000, guid: 4f26771dcf56c1d47a7e55b574bbfd65, type: 3}
    - {fileID: 21300000, guid: bae8c775e9e5bf643a52703d437a8f83, type: 3}
    - {fileID: 21300000, guid: 3e33089a9ee2d63448cfb626e9618ce3, type: 3}
    - {fileID: 21300000, guid: c9acf4aaa3af0a94fbf965610c5ac324, type: 3}
    - {fileID: 21300000, guid: 410040492a0f6b040b5c9630a69372bb, type: 3}
    - {fileID: 21300000, guid: d33f6b5821ec68846a3d60ca2f723ec5, type: 3}
    - {fileID: 21300000, guid: 5212345437e31df4d9b9dd2930a9592a, type: 3}
    - {fileID: 21300000, guid: fd90cfe940b69c94da9a705f2ed3d7e7, type: 3}
    - {fileID: 21300000, guid: 764c691474fa0f044b9a3a628a19dfcc, type: 3}
    - {fileID: 21300000, guid: e027581eb69ce614c879d6abc0796a09, type: 3}
    - {fileID: 21300000, guid: 0c387dacfad187d4f8f73ad7e7a5e3c7, type: 3}
    - {fileID: 21300000, guid: 8c09f5f9b48f67345b45bbaa6a5f2798, type: 3}
    - {fileID: 21300000, guid: e74d1b52d0f6b9e43bc737709524e98f, type: 3}
    - {fileID: 21300000, guid: 0628652e0cc70d84fab44179883c73ed, type: 3}
    - {fileID: 21300000, guid: df4e9a3638c146f4fb115a349d9d9478, type: 3}
    - {fileID: 21300000, guid: a3cc0033cbf7678418f852512629258f, type: 3}
    - {fileID: 21300000, guid: d88cd8ec7a83cab4c889c5bc96de0fa0, type: 3}
    - {fileID: 21300000, guid: f29b7327749e4f74cb76b92d863a9d9a, type: 3}
    - {fileID: 21300000, guid: a06aabc93d714824e96281c188ab6ef7, type: 3}
    - {fileID: 21300000, guid: 8316c590f2ac7044db0046aab7883751, type: 3}
    - {fileID: 21300000, guid: bda5a81cd3692de40837378d174d55dd, type: 3}
    - {fileID: 21300000, guid: d2e8cd01a2889c74e88363be72a1a1cd, type: 3}
    - {fileID: 21300000, guid: 63554af0b452cd64c911e33aedfd59db, type: 3}
    - {fileID: 21300000, guid: 9adc3de635975634cbfa93b204767732, type: 3}
    - {fileID: 21300000, guid: f5f9eac514d6d3349af3863639bbf315, type: 3}
    - {fileID: 21300000, guid: 85a2719d542d8bc48b44fce9e7926442, type: 3}
    - {fileID: 21300000, guid: 3743e74ac82ea5949b4d4e56de7c0bb0, type: 3}
    - {fileID: 21300000, guid: 745624ed084291944b8a5544d864110b, type: 3}
    - {fileID: 21300000, guid: f4a00424bd4b0e144a5c5805f13aa923, type: 3}
    - {fileID: 21300000, guid: 5232c57e77940b945b5de98af0f17908, type: 3}
    - {fileID: 21300000, guid: 4f309c44c12b7c94a84ea4575be6a473, type: 3}
    - {fileID: 21300000, guid: 1391e952e77884b4a90f73bf7f15571f, type: 3}
    - {fileID: 21300000, guid: 88d37ccfe148c6b438b0d251e2722ebf, type: 3}
    - {fileID: 21300000, guid: 033e1a0e8e5d3e44fbb5d2ca77388ce7, type: 3}
    - {fileID: 21300000, guid: dd01356e8b5fb6e49a9c28db38166ee2, type: 3}
    - {fileID: 21300000, guid: a2235e3863f239a4bb7ca5d74d5c15f4, type: 3}
    - {fileID: 21300000, guid: df74af8ea5a60774e921c8268c4cc948, type: 3}
    - {fileID: 21300000, guid: 90bfd074b098d004a9736b323e343060, type: 3}
    - {fileID: 21300000, guid: 4c3c03ba19b0cc442bb871ef1bb3e2af, type: 3}
    - {fileID: 21300000, guid: ab2dce035cc7371498ca9137ddab991c, type: 3}
    - {fileID: 21300000, guid: 01dde4a21e028844db2eea48c638ba74, type: 3}
    - {fileID: 21300000, guid: a97e33354b6b5ae4aac9799e69651fcc, type: 3}
    - {fileID: 21300000, guid: 775aede986d4ca646a642ad7de9141be, type: 3}
    - {fileID: 21300000, guid: 3b88e9f9da31df447bd752869e8d5f1a, type: 3}
    - {fileID: 21300000, guid: e71e039281661984d956493233290fa0, type: 3}
    - {fileID: 21300000, guid: bce52423169162646805d4ae52cff312, type: 3}
    - {fileID: 21300000, guid: 6e00ac73507a4d443b3f25f577145c3d, type: 3}
    - {fileID: 21300000, guid: e977be311492f714aa986c3fe5f14ded, type: 3}
    - {fileID: 21300000, guid: fe074463dfe846b4c9395159a97ce57e, type: 3}
    - {fileID: 21300000, guid: 2c518944c67ca86449d2d12c3d357e95, type: 3}
    - {fileID: 21300000, guid: db0c20db881feae449dcbf7bddc758a6, type: 3}
    - {fileID: 21300000, guid: cdd6c2a07ccec5b47ab0a55b0b598cac, type: 3}
    - {fileID: 21300000, guid: e1fee78b2f98eff488284c6c6e851d38, type: 3}
    - {fileID: 21300000, guid: b086d82ce6664f940ae8871bff5c09c9, type: 3}
    - {fileID: 21300000, guid: e4370d4fc96c1564ba262799c0c73659, type: 3}
    - {fileID: 21300000, guid: 345479445d07d924f865e704a0063d9a, type: 3}
    - {fileID: 21300000, guid: 1011e3aaf137387409484d0ac2cf9343, type: 3}
    - {fileID: 21300000, guid: c3d75c7c678bc0942a0f40e654ec1973, type: 3}
    - {fileID: 21300000, guid: d282da6c456ffaa49a276ae485a74dbb, type: 3}
    - {fileID: 21300000, guid: 2ad54fbc90e0486449542ed6ec0e6a7f, type: 3}
    - {fileID: 21300000, guid: 2d9f7280bffd61043832cc3eef008bb8, type: 3}
    - {fileID: 21300000, guid: f36418e49ee8237458e5069cc926884b, type: 3}
    - {fileID: 21300000, guid: 7bdf85079f9487d4581f7ab5563165a9, type: 3}
    - {fileID: 21300000, guid: d15080567c02b744fbd2695a62279160, type: 3}
    - {fileID: 21300000, guid: 0633612895bf79f4a977de7deec983d9, type: 3}
    - {fileID: 21300000, guid: 951b163bf8cd8f3438392d742820fef8, type: 3}
    - {fileID: 21300000, guid: 2f84e87cd39262a4f8cc2bd44e134406, type: 3}
    - {fileID: 21300000, guid: 9a30aefe23ffdea49833c1626b07a49e, type: 3}
    - {fileID: 21300000, guid: f69e572865d47574ab7c663ad6996bf3, type: 3}
    - {fileID: 21300000, guid: c42c65450a8410148a87d05d467e7a84, type: 3}
    - {fileID: 21300000, guid: e976acdcbe3d85c4980679bb593251d4, type: 3}
  m_AnimationClipSettings:
    serializedVersion: 2
    m_AdditiveReferencePoseClip: {fileID: 0}
    m_AdditiveReferencePoseTime: 0
    m_StartTime: 0
    m_StopTime: 5.016667
    m_OrientationOffsetY: 0
    m_Level: 0
    m_CycleOffset: 0
    m_HasAdditiveReferencePose: 0
    m_LoopTime: 1
    m_LoopBlend: 0
    m_LoopBlendOrientation: 0
    m_LoopBlendPositionY: 0
    m_LoopBlendPositionXZ: 0
    m_KeepOriginalOrientation: 0
    m_KeepOriginalPositionY: 1
    m_KeepOriginalPositionXZ: 0
    m_HeightFromFeet: 0
    m_Mirror: 0
  m_EditorCurves: []
  m_EulerEditorCurves: []
  m_HasGenericRootTransform: 0
  m_HasMotionFloatCurves: 0
  m_Events: []
